<?xml version="1.0" encoding="UTF-8" standalone="no"?>
<svg width="258px" height="210px" viewBox="0 0 258 210" version="1.1" xmlns="http://www.w3.org/2000/svg" xmlns:xlink="http://www.w3.org/1999/xlink">
    <!-- Generator: Sketch 39 (31667) - http://www.bohemiancoding.com/sketch -->
    <title>Group 2</title>
    <desc>Created with Sketch.</desc>
    <defs></defs>
    <g id="Page-1" stroke="none" stroke-width="1" fill="none" fill-rule="evenodd">
        <g id="tengxunyun" transform="translate(-32.000000, -188.000000)">
            <g id="Group-2" transform="translate(32.000000, 187.000000)">
                <path d="M64.629,184.718 C43.263,184.718 25.951,167.401 25.951,146.04 C25.951,128.614 37.47,113.878 53.315,109.039 C56.891,107.942 60.689,107.356 64.629,107.356 C83.023,107.356 98.407,120.202 102.329,137.412 L109.452,127.904 L120.264,113.469 C111.702,98.876 97.571,87.948 80.787,83.613 C75.625,82.283 70.206,81.572 64.629,81.572 C59.074,81.572 53.685,82.277 48.539,83.596 C20.72,90.743 0.162,115.986 0.162,146.039 C0.162,181.641 29.027,210.5 64.629,210.5 L83.948,184.717 L94.75,170.3 C87.667,179.095 76.801,184.718 64.629,184.718" id="Shape" fill="#28ACBD"></path>
                <path d="M98.297,165.074 C97.718,166.096 97.1,167.094 96.434,168.054 L98.548,165.232 L98.297,165.074 L98.297,165.074 Z" id="Shape" fill="#27A93A"></path>
                <path d="M80.788,83.614 C80.754,82.937 80.743,82.255 80.743,81.573 C80.743,54.868 102.393,33.224 129.091,33.224 C152.684,33.224 172.315,50.122 176.573,72.473 C176.848,72.398 177.119,72.314 177.395,72.242 C182.529,70.923 187.896,70.213 193.439,70.201 L193.558,70.201 C198.924,70.201 204.133,70.865 209.119,72.098 C204.429,32.059 170.391,0.993 129.091,0.993 C84.592,0.993 48.512,37.067 48.512,81.573 C48.512,82.249 48.518,82.926 48.54,83.597 C53.686,82.278 59.075,81.573 64.63,81.573 C70.207,81.573 75.625,82.284 80.788,83.614" id="Shape" fill="#3A72B9"></path>
                <path d="M209.079,83.597 C203.933,82.278 198.544,81.573 192.989,81.573 L192.87,81.573 C187.326,81.584 181.959,82.295 176.825,83.614 C162.691,87.264 150.434,95.588 141.803,106.839 L141.763,106.782 L125.941,127.904 L95.865,168.053 L94.182,170.299 L83.38,184.717 L64.061,210.5 L192.989,210.5 C228.591,210.5 257.45,181.641 257.45,146.039 C257.45,115.987 236.892,90.744 209.079,83.597 M192.989,184.718 L115.599,184.718 L116.77,183.16 L131.075,164.056 L131.075,164.05 L160.758,124.434 L160.849,124.52 C167.786,114.167 179.594,107.355 192.989,107.355 C196.923,107.355 200.721,107.941 204.303,109.038 C220.143,113.877 231.667,128.613 231.667,146.039 C231.667,167.4 214.349,184.718 192.989,184.718" id="Shape" fill="#59B1E4"></path>
            </g>
        </g>
    </g>
</svg>