<?xml version="1.0" encoding="UTF-8" standalone="no"?>
<svg width="12px" height="12px" viewBox="0 0 12 12" version="1.1" xmlns="http://www.w3.org/2000/svg" xmlns:xlink="http://www.w3.org/1999/xlink">
    <!-- Generator: Sketch 39 (31667) - http://www.bohemiancoding.com/sketch -->
    <title>下载</title>
    <desc>Created with Sketch.</desc>
    <defs></defs>
    <g id="Repository" stroke="none" stroke-width="1" fill="none" fill-rule="evenodd">
        <g transform="translate(-253.000000, -266.000000)" id="events" fill="#666666">
            <g>
                <g id="Group-19" transform="translate(181.000000, 157.000000)">
                    <g id="Group-14">
                        <g id="Group-11">
                            <g id="Group-10" transform="translate(9.000000, 16.000000)">
                                <g id="Group-16" transform="translate(0.000000, 80.000000)">
                                    <g id="Group-15" transform="translate(8.000000, 10.000000)">
                                        <g id="Group-6" transform="translate(55.000000, 0.000000)">
                                            <g id="下载" transform="translate(0.000000, 3.000000)">
                                                <g id="Group" transform="translate(0.123214, 0.000000)">
                                                    <path d="M11.0709645,10.6537165 C11.0709645,10.9225822 10.8546201,11.1405521 10.5877595,11.1405521 L0.494728459,11.1405521 C0.227867849,11.1405521 0.0115234613,10.9225822 0.0115234613,10.6537165 L0.0115234613,10.6537165 C0.0115234613,10.3848508 0.227867849,10.1668809 0.494728459,10.1668809 L10.5877595,10.1668809 C10.8546348,10.1668809 11.0709645,10.3848508 11.0709645,10.6537165 L11.0709645,10.6537165 L11.0709645,10.6537165 Z" id="Shape"></path>
                                                    <path d="M5.05697059,8.79403109 L5.05697059,0.492926658 C5.05697059,0.224046106 5.27331497,0.00609102232 5.54017558,0.00609102232 C5.80703619,0.00609102232 6.02338058,0.224060949 6.02338058,0.492926658 L6.02338058,8.79403109 C6.02338058,9.06289678 5.80703619,9.28086672 5.54017558,9.28086672 C5.27331497,9.28086672 5.05697059,9.0628968 5.05697059,8.79403109 Z" id="Path"></path>
                                                    <path d="M5.19849852,8.44660948 L8.82502648,4.79283302 C9.01372547,4.6027162 9.31968162,4.6027162 9.50838062,4.79283302 C9.69707962,4.98294984 9.69707962,5.29120484 9.50838062,5.48132165 L5.88185266,9.13511297 C5.69313893,9.32522977 5.38719752,9.32522977 5.19849852,9.13509811 C5.00979952,8.9449813 5.00979952,8.6367263 5.19849852,8.44660948 Z" id="Path"></path>
                                                    <path d="M5.88185266,9.13511297 C5.69315366,9.32522979 5.38719752,9.32522979 5.19849852,9.13511297 L1.57197056,5.48133651 C1.38327157,5.29121969 1.38327157,4.9829647 1.57197056,4.79284788 L1.57197056,4.79284788 C1.76066956,4.60273106 2.06662571,4.60273106 2.2553247,4.79284788 L5.88185266,8.44662434 C6.07055166,8.63674114 6.07055166,8.9449813 5.88185266,9.13511297 L5.88185266,9.13511297 L5.88185266,9.13511297 Z" id="Path"></path>
                                                </g>
                                            </g>
                                        </g>
                                    </g>
                                </g>
                            </g>
                        </g>
                    </g>
                </g>
            </g>
        </g>
    </g>
</svg>